<?xml version="1.0" encoding="UTF-8"?>
<svg width="49px" height="55px" viewBox="0 0 49 55" version="1.1" xmlns="http://www.w3.org/2000/svg" xmlns:xlink="http://www.w3.org/1999/xlink">
    <title>\ copy</title>
    <g id="Home-Page" stroke="none" stroke-width="1" fill="none" fill-rule="evenodd">
        <g id="FigsMarket-Home-Page-Desktop-Rev003" transform="translate(-820.000000, -858.000000)" fill="#121212" fill-rule="nonzero">
            <g id="\-copy" transform="translate(820.000000, 858.000000)">
                <path d="M24.8928183,29.9993196 C24.7911197,29.977307 24.6867795,29.9733446 24.5837602,29.9887535 C23.5513656,29.8685643 22.772557,28.9951012 22.7707959,27.9561027 C22.7707959,27.4581759 22.3670834,27.0544634 21.8691566,27.0544634 C21.3712299,27.0544634 20.9675172,27.4581759 20.9675172,27.9561027 C20.9701588,29.6911421 22.1306673,31.2108974 23.8036309,31.670082 L23.8036309,32.5717213 C23.8036309,33.0696481 24.2073434,33.4733607 24.7052702,33.4733607 C25.2031971,33.4733607 25.6069096,33.0696481 25.6069096,32.5717213 L25.6069096,31.7246734 C27.5378619,31.3205207 28.8502578,29.5220847 28.6473009,27.5598745 C28.4439037,25.5976643 26.7907514,24.1065254 24.8179752,24.1060851 C23.6874039,24.1060851 22.7707959,23.1894771 22.7707959,22.0589059 C22.7707959,20.9283347 23.6874039,20.0117268 24.8179752,20.0117268 C25.9485464,20.0117268 26.8651544,20.9283347 26.8651544,22.0589059 C26.8651544,22.5568327 27.2688669,22.9605452 27.7667937,22.9605452 C28.2647205,22.9605452 28.6684331,22.5568327 28.6684331,22.0589059 C28.6657915,20.2371366 27.3894963,18.6658716 25.6069096,18.289895 L25.6069096,17.4692623 C25.6069096,16.9713355 25.2031971,16.567623 24.7052702,16.567623 C24.2073434,16.567623 23.8036309,16.9713355 23.8036309,17.4692623 L23.8036309,18.3449266 C21.9431192,18.8529793 20.7456294,20.6593398 21.0018571,22.5709209 C21.2580847,24.4825019 22.8892242,25.9093638 24.8179752,25.9089235 C25.9335777,25.9089235 26.8435819,26.8021981 26.8638336,27.9173604 C26.8845254,29.0325227 26.0075403,29.9588163 24.8928183,29.9993196 L24.8928183,29.9993196 Z" id="Path"></path>
                <path d="M11.7433241,25.0768443 C11.7433241,32.2978835 17.5969358,38.1514952 24.8179752,38.1514952 C32.0390145,38.1514952 37.8926262,32.2978835 37.8926262,25.0768443 C37.8926262,17.855805 32.0390145,12.0021933 24.8179752,12.0021933 C17.6004578,12.0101178 11.7516889,17.859327 11.7433241,25.0768443 Z M24.8179752,13.805472 C31.0431609,13.805472 36.0893475,18.8516586 36.0893475,25.0768443 C36.0893475,31.30203 31.0431609,36.3482165 24.8179752,36.3482165 C18.5927894,36.3482165 13.5466028,31.30203 13.5466028,25.0768443 C13.5536468,18.8547404 18.5958713,13.8125161 24.8179752,13.805472 Z" id="Shape"></path>
                <path d="M42.3374264,40.3743356 L35.2744381,43.7114578 C34.2992764,41.8976131 32.4286389,40.7432681 30.3700132,40.6851546 L23.8498575,40.5059715 C22.8174629,40.4764745 21.8044394,40.2149638 20.8865106,39.7408107 L20.2230485,39.3969727 C16.8260518,37.6262727 12.7770396,37.6306753 9.38356488,39.4084192 L9.42494877,37.9053935 C9.43859666,37.4074667 9.04633069,36.9927478 8.54840385,36.9791 L1.39868561,36.7823066 C0.900758893,36.7686587 0.486480184,37.1609247 0.472832295,37.6588515 L0.0405979624,53.3486088 C0.0272957787,53.8465356 0.419561639,54.2612544 0.917488473,54.2749023 L8.06720671,54.4716957 L8.09186091,54.4716957 C8.58054234,54.4716957 8.9802927,54.0829518 8.99350026,53.5947106 L9.0141922,52.8440782 L10.8716221,51.8495453 C11.600682,51.4572794 12.453013,51.3639456 13.2494317,51.5893554 L24.3411805,54.7023886 C24.3605516,54.7081118 24.3799228,54.7125144 24.3997343,54.7169169 C25.2014361,54.8846535 26.0185467,54.968742 26.8374184,54.9683035 C28.5720175,54.9691822 30.2863649,54.5954069 31.8629131,53.87163 C31.9016554,53.8540199 31.9390769,53.8333281 31.9747374,53.8099945 L48.0567607,43.4076828 C48.4573915,43.1483735 48.586826,42.6222704 48.3521709,42.206671 C47.1582031,40.0881708 44.5100778,39.281186 42.3374264,40.3743356 L42.3374264,40.3743356 Z M1.86843622,52.4971584 L2.25057633,38.6097993 L7.59745611,38.7568439 L7.21531599,52.6446433 L1.86843622,52.4971584 Z M31.0506451,52.2611825 C29.091957,53.1452117 26.9043369,53.3891121 24.7990442,52.9589844 L13.7372327,49.8538759 C12.4921955,49.5021132 11.1595479,49.6478372 10.0206118,50.2602298 L9.07142511,50.7687228 L9.32545152,41.5352843 C12.333264,39.534772 16.1907659,39.3291736 19.394051,40.9981749 L20.0575132,41.342013 C21.217141,41.9407578 22.4960777,42.2709481 23.8005491,42.3088098 L30.321145,42.4879931 C32.1525999,42.5408235 33.7080158,43.8448547 34.0795898,45.6393282 L24.3671555,45.3712138 C23.8692286,45.3575659 23.4549501,45.7502722 23.4408619,46.2477587 C23.427214,46.7456855 23.8199202,47.1604044 24.3174069,47.1740523 L35.0358206,47.4690222 L35.0609151,47.4690222 C35.5491563,47.4685819 35.9484664,47.0798379 35.9616739,46.5920371 C35.9726802,46.2002113 35.9436236,45.8079453 35.8745038,45.4222832 L43.1188764,41.9993117 C43.1259205,41.9962299 43.1329646,41.9927078 43.1400086,41.9891858 C44.1675605,41.4692462 45.4099561,41.6431464 46.255243,42.4254771 L31.0506451,52.2611825 Z" id="Shape"></path>
                <path d="M25.7196145,9.46721311 L25.7196145,0.901639344 C25.7196145,0.40371251 25.315902,0 24.8179752,0 C24.3200483,0 23.9163358,0.40371251 23.9163358,0.901639344 L23.9163358,9.46721311 C23.9163358,9.96513995 24.3200483,10.3688525 24.8179752,10.3688525 C25.315902,10.3688525 25.7196145,9.96513995 25.7196145,9.46721311 Z" id="Path"></path>
                <path d="M32.4819096,9.46721311 L32.4819096,5.40983607 C32.4819096,4.91190923 32.0781971,4.50819672 31.5802702,4.50819672 C31.0823434,4.50819672 30.6786309,4.91190923 30.6786309,5.40983607 L30.6786309,9.46721311 C30.6786309,9.96513995 31.0823434,10.3688525 31.5802702,10.3688525 C32.0781971,10.3688525 32.4819096,9.96513995 32.4819096,9.46721311 Z" id="Path"></path>
                <path d="M18.9573194,9.46721311 L18.9573194,5.40983607 C18.9573194,4.91190923 18.5536069,4.50819672 18.0556801,4.50819672 C17.5577532,4.50819672 17.1540407,4.91190923 17.1540407,5.40983607 L17.1540407,9.46721311 C17.1540407,9.96513995 17.5577532,10.3688525 18.0556801,10.3688525 C18.5536069,10.3688525 18.9573194,9.96513995 18.9573194,9.46721311 Z" id="Path"></path>
            </g>
        </g>
    </g>
</svg>