<svg width="20" height="14" viewBox="0 0 20 14" fill="none" xmlns="http://www.w3.org/2000/svg">
<rect width="20" height="1.5" rx="0.75" fill="#2D242D"/>
<rect x="5" y="6" width="15" height="1.5" rx="0.75" fill="#2D242D"/>
<rect x="10" y="12" width="10" height="1.5" rx="0.75" fill="#2D242D"/>
</svg>
