<?xml version="1.0" encoding="UTF-8"?>
<svg width="11px" height="17px" viewBox="0 0 11 17" version="1.1" xmlns="http://www.w3.org/2000/svg" xmlns:xlink="http://www.w3.org/1999/xlink">
    <title>Rectangle Copy</title>
    <g id="Home-Page" stroke="none" stroke-width="1" fill="none" fill-rule="evenodd">
        <g id="FigsMarket-Home-Page-Desktop-Rev007" transform="translate(-1571.000000, -1254.000000)" stroke="#2D242D" stroke-width="2">
            <g id="Group-53" transform="translate(339.000000, 1055.000000)">
                <polyline id="Rectangle-Copy" transform="translate(1233.119573, 207.325444) scale(-1, 1) rotate(-135.000000) translate(-1233.119573, -207.325444) " points="1227.79413 202.394477 1238.44502 202 1238.05054 212.650888"></polyline>
            </g>
        </g>
    </g>
</svg>